I Estadística Descriptiva
…
     Inferencia Estadística

     La inferencia estadística es el proceso por el cual se puede llegar a conclusiones relacionadas a una población a partir de información contenida en una muestra que fue extraída de dicha población.

     Agrupamiento de Datos

     Para iniciar el estudio de una muestra de datos se pueden hacer algunos procesos que nos permitan hacer una serie de Medidas Descriptivas de los datos que se obtuvieron a traves de una muestra tomada de una población.

     Como ya lo expusimos en el ejemplo del número de ballenas que llegaron a las playas del estado de Texas en la década de los 90’s. uno de los pasos iniciales que se puede hacer para entender un conjunto de datos medidos es hacer una arreglo ordenado de los datos que tenemos. En el ejemplo a continuación vamos a usar una muestra de un estudio de sujetos que dejaron de fumar, se listan las edades a las que dejaron de ser fumadores. La lista al cargarse, no está ordenada ni se han manipulado los datos y por lo tanto se acostumbra decir que los datos están crudos (raw data), encontramos que si nos preguntaran cual es la edad mayor y menor de cuando este grupo de sujetos dejó de fumar nos tomaría algún esfuerzo, sin embargo si cargamos los datos en un vector (arreglo unidimensional) y lo ordenamos bastará con ver el primer y último elementos para saber cual es el mínimo y máximo del grupo de edades.

Fuma <- read_csv("DataSets/ch02_all/EXA_C02_S02_01.csv")
     Fuma

# A tibble: 188 x 1
          Age
        <dbl>
      1    30
      2    43
      3    45
      4    48
      5    50
      6    53
      7    53
      8    55
      9    58
     10    61
     # … with 178 more rows
…
